{
  "GameBoard": {
    "Elements": [
      [
        {
          "IsReadOnly": false,
          "Text": "",
          "Number": 0
        },
        {
          "IsReadOnly": false,
          "Text": "",
          "Number": 0
        },
        {
          "IsReadOnly": true,
          "Text": "1",
          "Number": 1
        },
        {
          "IsReadOnly": true,
          "Text": "3",
          "Number": 3
        },
        {
          "IsReadOnly": false,
          "Text": "",
          "Number": 0
        },
        {
          "IsReadOnly": false,
          "Text": "",
          "Number": 0
        },
        {
          "IsReadOnly": true,
          "Text": "7",
          "Number": 7
        },
        {
          "IsReadOnly": false,
          "Text": "",
          "Number": 0
        },
        {
          "IsReadOnly": true,
          "Text": "2",
          "Number": 2
        }
      ],
      [
        {
          "IsReadOnly": false,
          "Text": "",
          "Number": 0
        },
        {
          "IsReadOnly": false,
          "Text": "",
          "Number": 0
        },
        {
          "IsReadOnly": true,
          "Text": "6",
          "Number": 6
        },
        {
          "IsReadOnly": true,
          "Text": "2",
          "Number": 2
        },
        {
          "IsReadOnly": false,
          "Text": "",
          "Number": 0
        },
        {
          "IsReadOnly": false,
          "Text": "",
          "Number": 0
        },
        {
          "IsReadOnly": false,
          "Text": "",
          "Number": 0
        },
        {
          "IsReadOnly": true,
          "Text": "1",
          "Number": 1
        },
        {
          "IsReadOnly": false,
          "Text": "",
          "Number": 0
        }
      ],
      [
        {
          "IsReadOnly": false,
          "Text": "",
          "Number": 0
        },
        {
          "IsReadOnly": true,
          "Text": "2",
          "Number": 2
        },
        {
          "IsReadOnly": false,
          "Text": "",
          "Number": 0
        },
        {
          "IsReadOnly": false,
          "Text": "",
          "Number": 0
        },
        {
          "IsReadOnly": false,
          "Text": "",
          "Number": 0
        },
        {
          "IsReadOnly": false,
          "Text": "",
          "Number": 0
        },
        {
          "IsReadOnly": false,
          "Text": "",
          "Number": 0
        },
        {
          "IsReadOnly": false,
          "Text": "",
          "Number": 0
        },
        {
          "IsReadOnly": true,
          "Text": "4",
          "Number": 4
        }
      ],
      [
        {
          "IsReadOnly": true,
          "Text": "2",
          "Number": 2
        },
        {
          "IsReadOnly": false,
          "Text": "",
          "Number": 0
        },
        {
          "IsReadOnly": false,
          "Text": "",
          "Number": 0
        },
        {
          "IsReadOnly": true,
          "Text": "6",
          "Number": 6
        },
        {
          "IsReadOnly": false,
          "Text": "",
          "Number": 0
        },
        {
          "IsReadOnly": true,
          "Text": "1",
          "Number": 1
        },
        {
          "IsReadOnly": true,
          "Text": "3",
          "Number": 3
        },
        {
          "IsReadOnly": false,
          "Text": "",
          "Number": 0
        },
        {
          "IsReadOnly": true,
          "Text": "9",
          "Number": 9
        }
      ],
      [
        {
          "IsReadOnly": false,
          "Text": "",
          "Number": 0
        },
        {
          "IsReadOnly": false,
          "Text": "",
          "Number": 0
        },
        {
          "IsReadOnly": false,
          "Text": "",
          "Number": 0
        },
        {
          "IsReadOnly": false,
          "Text": "",
          "Number": 0
        },
        {
          "IsReadOnly": false,
          "Text": "",
          "Number": 0
        },
        {
          "IsReadOnly": false,
          "Text": "",
          "Number": 0
        },
        {
          "IsReadOnly": false,
          "Text": "",
          "Number": 0
        },
        {
          "IsReadOnly": false,
          "Text": "",
          "Number": 0
        },
        {
          "IsReadOnly": false,
          "Text": "",
          "Number": 0
        }
      ],
      [
        {
          "IsReadOnly": true,
          "Text": "4",
          "Number": 4
        },
        {
          "IsReadOnly": false,
          "Text": "",
          "Number": 0
        },
        {
          "IsReadOnly": true,
          "Text": "3",
          "Number": 3
        },
        {
          "IsReadOnly": true,
          "Text": "8",
          "Number": 8
        },
        {
          "IsReadOnly": false,
          "Text": "",
          "Number": 0
        },
        {
          "IsReadOnly": true,
          "Text": "9",
          "Number": 9
        },
        {
          "IsReadOnly": false,
          "Text": "",
          "Number": 0
        },
        {
          "IsReadOnly": false,
          "Text": "",
          "Number": 0
        },
        {
          "IsReadOnly": true,
          "Text": "7",
          "Number": 7
        }
      ],
      [
        {
          "IsReadOnly": true,
          "Text": "1",
          "Number": 1
        },
        {
          "IsReadOnly": false,
          "Text": "",
          "Number": 0
        },
        {
          "IsReadOnly": false,
          "Text": "",
          "Number": 0
        },
        {
          "IsReadOnly": false,
          "Text": "",
          "Number": 0
        },
        {
          "IsReadOnly": false,
          "Text": "",
          "Number": 0
        },
        {
          "IsReadOnly": false,
          "Text": "",
          "Number": 0
        },
        {
          "IsReadOnly": false,
          "Text": "",
          "Number": 0
        },
        {
          "IsReadOnly": true,
          "Text": "8",
          "Number": 8
        },
        {
          "IsReadOnly": false,
          "Text": "",
          "Number": 0
        }
      ],
      [
        {
          "IsReadOnly": false,
          "Text": "",
          "Number": 0
        },
        {
          "IsReadOnly": true,
          "Text": "5",
          "Number": 5
        },
        {
          "IsReadOnly": false,
          "Text": "",
          "Number": 0
        },
        {
          "IsReadOnly": false,
          "Text": "",
          "Number": 0
        },
        {
          "IsReadOnly": false,
          "Text": "",
          "Number": 0
        },
        {
          "IsReadOnly": true,
          "Text": "6",
          "Number": 6
        },
        {
          "IsReadOnly": true,
          "Text": "4",
          "Number": 4
        },
        {
          "IsReadOnly": false,
          "Text": "",
          "Number": 0
        },
        {
          "IsReadOnly": false,
          "Text": "",
          "Number": 0
        }
      ],
      [
        {
          "IsReadOnly": true,
          "Text": "9",
          "Number": 9
        },
        {
          "IsReadOnly": false,
          "Text": "",
          "Number": 0
        },
        {
          "IsReadOnly": true,
          "Text": "4",
          "Number": 4
        },
        {
          "IsReadOnly": false,
          "Text": "",
          "Number": 0
        },
        {
          "IsReadOnly": false,
          "Text": "",
          "Number": 0
        },
        {
          "IsReadOnly": true,
          "Text": "8",
          "Number": 8
        },
        {
          "IsReadOnly": true,
          "Text": "5",
          "Number": 5
        },
        {
          "IsReadOnly": false,
          "Text": "",
          "Number": 0
        },
        {
          "IsReadOnly": false,
          "Text": "",
          "Number": 0
        }
      ]
    ]
  },
  "UserAllocatedTime": 383
}